175.24.97.62
13.52.102.184
18.118.152.216
143.198.30.9
1.117.79.143
167.172.156.12
69.216.19.140
51.178.37.123
14.140.95.157
43.128.60.24
49.232.221.164
106.12.147.39
211.253.38.167
42.192.10.106
217.180.229.85
199.195.249.4
121.4.50.118
106.13.52.134
1.117.227.6
185.91.142.202
139.59.18.215
115.159.2.26
52.204.119.21
139.186.4.114
45.228.138.18
203.67.244.32
81.69.248.159
209.141.54.66
125.141.139.9
120.192.206.102
138.68.106.62
68.116.41.6
178.128.148.223
181.49.50.202
195.54.14.122
211.239.124.233
107.170.113.190
118.160.4.111
189.112.94.159
83.223.19.88
51.81.79.146
120.48.5.102
43.128.72.172
194.170.156.9
138.197.184.191
49.233.80.20
180.76.165.44
144.34.130.253
103.219.204.75
49.234.201.237
49.233.160.217
150.158.190.213
167.99.75.240
95.165.172.171
91.231.213.51
183.0.148.168
165.227.44.117
84.255.249.179
200.241.189.34
154.8.224.155
45.4.202.109
132.232.57.135
159.180.243.2
27.128.229.118
118.131.39.189
195.29.102.21
178.62.195.233
124.120.170.181
81.249.140.146
200.92.226.50
164.52.89.94
201.99.120.13
1.15.115.156
107.189.30.47
134.209.185.4
81.68.234.113
193.186.9.88
165.22.214.1
81.69.242.112
61.2.140.193
103.141.117.248
82.156.22.146
106.53.19.38
87.117.63.18
5.181.80.153
124.67.69.116
103.86.180.10
104.131.161.146
81.69.58.232
106.12.112.236
106.51.98.159
41.225.16.155
150.158.187.118
81.70.150.25
103.193.127.22
201.72.190.98
107.189.13.223
106.248.228.114
49.232.55.26
181.124.153.101
206.189.37.114
77.20.197.217
139.198.6.124
103.45.131.9
49.235.254.16
51.210.182.85
117.50.94.89
51.183.163.142
123.206.188.77
157.230.234.93
181.13.51.177
106.54.166.168
177.91.80.8
1.117.62.252
218.204.70.179
107.173.149.104
111.229.4.66
118.70.233.117
218.234.198.105
121.4.23.4
91.150.172.162
93.63.37.231
140.249.216.238
216.224.127.54
118.25.187.178
142.93.179.2
180.76.180.210
159.203.186.15
198.199.69.114
157.245.116.218
178.62.80.236
218.29.196.186
135.125.95.51
1.117.75.234
143.110.156.196
209.141.43.141
67.230.173.18
116.132.47.50
175.24.113.82
115.159.48.34
154.8.209.99
121.66.109.90
177.52.152.222
106.54.216.221
103.89.176.75
77.105.130.148
180.97.80.12
211.253.26.219
81.69.163.230
144.7.122.94
209.141.61.31
182.52.90.164
203.217.140.77
221.146.36.121
63.41.225.61
152.136.236.159
209.97.181.33
213.172.73.164
203.151.39.4
198.46.152.121
72.167.224.135
129.152.141.71
119.45.208.92
81.70.205.210
116.153.2.143
180.76.100.233
113.174.226.108
159.203.111.100
120.53.118.216
170.106.153.172
34.216.205.99
121.105.215.185
122.192.87.150
165.227.166.247
188.166.165.100
185.46.163.163
42.192.79.202
81.69.35.41
187.212.188.129
42.192.220.183
154.8.219.230
68.183.110.49
125.141.133.70
183.97.39.5
159.75.101.220
111.230.195.170
207.89.70.217
139.198.186.168
132.232.87.247
139.59.129.45
192.144.254.35
105.112.74.107
8.225.226.100
93.43.240.145
42.192.75.240
112.26.44.112
121.235.202.83
179.104.55.24
180.76.39.180
103.233.2.162
64.183.249.110
1.14.63.78
128.199.123.0
159.75.16.106
201.7.170.1
129.211.49.44
178.128.215.16
119.29.184.119
121.5.111.87
37.183.188.131
106.54.170.148
92.241.17.112
144.91.98.126
219.240.99.108
170.106.50.166
82.156.190.37
81.69.8.18
43.254.158.241
118.24.120.41
205.185.122.230
117.139.234.87
104.248.243.178
103.205.143.188
182.254.227.79
159.65.91.105
143.244.118.3
179.157.4.168
106.12.13.23
114.33.93.234
190.202.32.2
1.15.175.127
190.145.12.233
103.92.24.246
122.51.211.131
41.76.175.133
119.45.113.118
192.241.131.223
106.13.114.133
159.89.164.104
1.119.153.110
139.198.177.151
49.234.131.75
106.12.97.46
103.150.113.250
222.191.243.226
101.89.76.94
18.135.210.65
20.84.56.71
1.220.185.149
206.189.199.185
217.159.212.115
183.62.15.118
1.117.113.133
73.62.254.79
41.76.175.136
221.238.207.219
112.196.74.82
167.99.148.145
178.128.159.1
182.52.252.115
A
1.15.67.125
200.123.180.49
180.166.117.254
81.70.134.173
120.24.244.182
107.170.76.103
185.17.141.63
20.36.17.7
186.10.125.209
132.232.108.149
183.87.14.125
139.59.9.18
49.236.195.39
46.101.211.196
13.65.16.18
113.161.25.9
121.5.178.122
178.62.81.36
81.68.209.131
62.148.142.202
164.163.99.10
216.13.26.79
114.7.162.198
209.145.49.191
159.203.235.114
186.10.245.152
133.130.124.231
217.174.184.198
104.131.88.229
41.76.175.131
114.67.85.74
146.56.222.200
117.50.105.149
139.59.234.167
190.143.69.140
85.62.218.82
121.4.67.79
95.85.8.215
115.150.176.155
14.136.104.38
42.192.132.127
189.7.217.23
212.192.246.71
180.100.243.210
81.70.17.83
27.121.86.58
121.4.40.50
49.234.62.183
40.121.14.28
119.45.221.79
81.70.196.5
182.61.2.29
218.18.161.186
148.70.195.242
218.206.136.24
42.192.235.102
175.27.233.217
167.99.137.148
89.208.254.11
68.183.94.93
81.70.201.194
138.197.66.142
96.1.64.194
122.202.32.70
62.210.130.202
223.75.51.167
180.76.136.108
180.76.56.29
120.29.155.122
62.234.41.136
103.151.138.67
200.106.236.140
223.205.233.34
180.97.80.246
94.153.212.68
222.173.29.165
113.200.212.170
111.230.181.82
49.233.2.230
190.13.81.219
76.95.50.98
89.212.160.214
154.204.25.147
186.43.32.98
222.222.31.70
119.96.239.27
104.131.16.68
42.192.131.243
183.237.175.97
136.144.41.100
141.226.169.27
45.235.83.254
81.68.135.238
103.124.93.74
81.68.200.174
125.212.172.214
121.4.34.147
209.141.42.90
106.51.227.10
1.13.0.150
178.128.162.10
150.165.212.10
111.67.194.94
59.21.248.18
1.15.42.193
58.122.153.209
140.143.190.223
180.247.29.65
104.131.74.150
82.207.87.24
118.89.95.214
187.141.135.181
128.199.141.33
185.247.20.255
123.201.36.218
164.77.117.10
111.67.196.97
122.114.79.23
2.42.221.248
81.68.66.14
190.117.221.44
195.244.25.131
82.156.32.143
175.24.30.100
58.250.176.94
147.139.135.49
179.49.210.201
202.79.56.152
101.89.162.247
176.111.173.226
103.92.24.244
157.230.234.39
201.217.159.155
187.102.150.158
185.38.3.138
42.192.125.230
144.34.146.251
81.70.43.144
163.53.177.36
103.115.128.246
45.43.61.40
1.116.239.130
218.146.11.129
212.253.91.154
186.47.213.34
106.12.205.77
124.194.50.21
121.4.127.114
165.227.84.172
190.145.224.18
189.4.128.122
121.4.220.170
138.197.69.184
162.253.42.249
220.174.233.61
115.159.147.151
196.200.177.195
148.70.102.69
212.192.246.214
65.2.137.14
119.29.55.113
91.218.127.142
81.69.230.208
138.68.183.93
49.235.148.181
31.172.134.75
49.232.161.195
61.93.186.125
103.40.253.158
106.13.226.113
120.92.94.76
106.52.20.112
157.230.12.231
1.117.159.215
218.20.32.4
200.219.3.10
107.170.104.125
168.227.99.11
108.191.132.119
130.61.255.187
132.232.31.157
81.69.56.253
152.136.99.20
185.149.22.172
119.96.157.188
103.127.207.100
154.160.74.186
198.98.53.212
45.230.237.31
43.226.69.100
192.241.144.225
81.70.12.87
179.157.33.2
47.74.50.6
221.224.21.28
23.97.53.14
106.75.135.64
119.92.126.230
107.189.1.161
159.89.194.160
67.205.133.144
159.65.152.65
106.75.9.141
186.116.49.135
150.158.193.13
190.144.14.170
178.62.102.99
159.65.144.219
157.230.22.160
149.74.139.248
91.121.0.159
209.141.35.244
117.50.11.185
120.53.246.131
159.203.102.122
37.139.2.161
88.120.105.119
80.244.179.6
217.9.89.218
202.88.234.48
10.13.37.5
181.48.60.50
167.99.99.10
106.75.72.203
49.233.168.100
143.244.181.33
36.156.154.154
202.165.25.141
81.70.92.101
36.110.114.32
139.217.129.158
111.231.79.227
111.231.18.208
165.227.204.174
218.94.136.90
183.81.124.26
186.29.181.237
207.154.205.34
164.163.30.229
1.117.46.219
119.29.185.75
209.141.36.53
178.62.27.207
109.188.86.174
121.4.123.73
197.255.136.62
201.116.3.194
106.12.171.76
43.128.111.236
36.134.27.190
200.116.175.40
223.197.188.206
121.4.56.34
72.42.162.79
43.128.108.167
160.251.73.61
139.59.228.214
51.158.171.117
129.226.189.141
177.19.226.178
82.156.192.108
79.172.67.109
167.71.9.180
63.151.48.50
182.254.149.130
113.31.118.242
82.157.193.224
157.245.218.29
119.93.23.178
89.17.54.18
81.70.192.180
182.71.138.178
103.219.112.88
188.87.255.14
121.4.164.75
122.226.206.254
164.52.43.34
212.112.98.98
59.13.125.142
103.224.33.35
201.17.134.234
172.81.215.201
207.154.205.115
154.197.215.2
128.199.173.197
180.76.185.183
217.93.166.164
106.12.185.10
190.113.136.156
178.128.125.217
115.159.200.183
185.49.86.241
107.170.20.247
64.71.131.100
121.4.108.157
114.93.25.69
106.13.144.99
5.44.79.122
165.227.101.226
180.76.175.234
176.109.0.30
218.255.245.10
175.27.137.68
107.179.203.184
37.57.169.85
195.224.138.61
51.254.248.18
159.65.111.89
107.189.3.138
81.69.58.73
165.154.226.8
200.13.195.70
47.241.185.140
106.12.199.96
111.229.175.77
201.138.28.37
123.201.128.182
58.233.240.94
51.145.208.82
110.78.208.9
41.67.48.101
209.141.61.41
138.117.180.70
81.70.46.31
119.45.187.6
121.4.186.170
210.212.237.67
180.13.76.72
201.30.84.242
103.246.240.30
180.76.233.8
41.72.219.102
119.45.6.81
1.234.58.211
118.114.187.126
45.113.32.180
81.71.17.12
120.48.31.80
52.160.46.145
42.192.79.20
209.145.62.64
167.71.196.176
81.68.242.64
179.126.141.214
82.64.120.21
125.180.255.228
1.15.187.107
42.192.47.27
49.232.12.118
113.53.126.222
93.47.3.47
183.162.230.169
81.71.128.135
5.8.41.175
177.189.98.239
177.127.163.144
41.76.175.89
113.161.35.198
1.117.75.137
134.175.19.39
164.90.157.185
81.68.68.222
109.80.128.210
129.204.15.121
122.114.95.158
106.12.46.160
182.73.147.154
13.73.178.174
116.228.233.91
95.223.250.241
128.199.106.232
49.232.193.113
209.141.54.220
122.51.148.205
160.178.220.14
106.53.40.211
47.250.47.66
106.13.25.242
159.75.119.118
82.156.44.77
106.75.247.8
178.57.125.78
146.56.192.231
157.245.142.101
81.70.164.97
89.10.218.72
118.89.245.202
125.77.188.199
113.128.27.124
111.90.186.21
80.81.232.131
133.130.118.86
176.122.166.133
1.13.1.51
199.19.226.145
139.198.14.54
118.26.65.250
111.20.10.51
106.13.217.10
222.185.231.246
119.28.235.68
138.197.64.35
106.2.45.18
122.114.237.5
115.159.114.30
87.222.84.189
62.162.149.139
164.52.0.124
116.110.30.255
114.67.105.113
146.56.245.112
177.200.207.11
182.61.27.149
200.73.129.33
212.12.31.69
106.54.78.101
106.12.182.249
207.154.207.53
185.210.217.110
106.52.127.240
14.238.77.66
49.235.149.29
139.155.15.122
159.75.108.218
60.248.108.24
210.114.17.240
199.195.253.212
178.62.108.157
79.10.81.238
116.111.115.22
130.193.36.121
159.89.29.17
188.166.255.224
198.199.69.221
81.69.253.29
182.77.50.82
103.1.210.46
129.126.111.41
180.101.233.96
41.207.51.96
177.220.133.158
41.76.175.185
120.53.241.148
106.12.219.184
186.101.16.90
1.15.111.142
122.51.154.241
121.4.206.169
165.227.228.72
106.53.108.200
61.94.32.149
211.110.64.36
150.158.172.13
116.52.1.211
211.244.45.196
213.141.131.22
49.234.58.18
202.72.245.125
129.211.131.164
103.39.215.2
182.61.37.35
121.201.93.66
165.3.89.14
196.12.143.54
64.225.60.255
106.52.106.61
81.70.160.145
49.234.227.17
111.67.201.138
81.70.143.188
223.71.108.86
138.197.113.240
1.117.143.185
116.193.190.39
121.152.221.196
176.111.173.85
1.54.193.200
106.52.115.36
49.233.35.206
162.243.10.55
1.116.155.48
81.182.248.193
170.51.104.94
35.184.62.5
49.234.41.254
121.4.90.242
178.18.242.250
132.232.1.155
122.248.37.50
66.49.84.65
77.199.87.64
115.159.25.205
182.254.221.155
2.42.138.122
188.226.153.144
5.189.136.43
93.232.182.85
165.227.193.157
196.189.91.166
81.68.181.60
187.102.116.112
212.129.249.209
212.64.66.208
106.54.74.83
119.145.191.76
62.234.42.165
190.166.189.57
49.233.2.204
65.190.102.226
178.176.250.18
119.29.237.201
106.13.207.159
42.193.41.129
46.101.23.51
103.28.224.124
103.27.187.226
111.93.53.62
119.45.222.47
13.212.153.55
1.15.30.75
185.46.18.99
122.4.54.208
173.161.87.170
132.232.200.163
31.173.8.214
194.179.99.145
213.152.102.45
77.128.72.64
118.25.6.78
140.143.222.87
109.167.200.10
42.240.133.115
64.225.70.10
92.148.248.157
81.71.69.37
106.75.227.133
35.194.196.236
217.93.164.82
84.3.59.133
160.16.69.114
103.41.25.1
140.143.229.207
104.131.102.169
187.189.215.71
171.226.0.213
82.156.215.180
1.117.75.20
146.56.193.223
185.232.68.229
67.43.224.118
201.222.48.162
36.133.170.229
119.29.12.21
138.197.195.123
188.166.81.17
154.221.18.205
106.75.230.69
154.120.243.194
74.208.151.54
132.232.89.241
1.179.157.230
147.182.134.91
49.234.134.90
140.206.242.34
49.235.73.219
111.67.197.69
121.4.66.32
201.72.190.101
212.64.91.114
148.66.142.123
92.53.70.76
165.98.224.34
20.194.60.135
139.198.190.249
36.94.2.139
169.239.73.106
118.24.115.74
206.81.4.118
27.114.177.109
212.64.87.236
118.99.104.151
202.5.23.236
217.108.12.12
153.35.93.175
165.154.233.118
179.108.248.122
190.147.165.81
200.232.53.68
220.118.0.221
167.172.160.141
119.45.235.14
61.7.235.211
120.48.22.116
123.59.195.115
5.9.216.116
49.229.69.4
190.248.84.205
58.220.50.172
91.196.245.199
84.178.176.62
14.63.160.19
125.137.15.15
96.45.178.63
124.156.136.201
112.91.149.18
49.51.248.14
181.52.172.107
52.141.63.69
36.68.14.80
202.29.80.133
42.193.122.195
220.134.113.188
128.199.184.157
36.67.70.186
1.14.5.60
116.98.171.249
1.15.224.187
49.232.20.210
41.66.227.159
178.176.250.17
115.242.207.10
69.119.85.43
182.76.204.237
82.156.85.3
152.136.16.233
114.111.52.4
177.242.147.170
187.109.10.100
178.48.177.125
116.92.213.114
181.49.154.26
180.183.97.155
181.129.14.218
106.13.229.67
77.40.123.115
115.159.90.184
103.82.220.226
195.19.102.239
180.97.31.28
110.35.173.103
45.141.78.227
140.249.214.101
128.199.247.40
150.95.140.160
159.65.158.224
52.163.53.174
207.46.227.197
207.180.252.113
141.98.10.56
146.56.240.245
125.21.227.10
121.5.25.74
164.155.89.102
138.197.186.53
101.71.3.53
178.128.19.209
109.173.61.73
153.120.134.180
95.46.201.106
139.219.11.254
162.241.120.177
129.204.203.218
168.205.86.60
113.12.64.58
35.222.57.39
208.109.15.199
175.42.70.240
95.156.96.46
66.70.142.214
82.79.192.106
110.137.82.9
45.61.184.109
132.232.35.70
200.60.89.129
106.12.214.128
118.193.38.83
180.244.137.166
60.167.239.99
58.87.71.16
13.78.15.87
115.159.202.112
118.97.55.109
119.91.114.167
68.183.79.149
106.12.24.203
2.45.185.2
171.101.52.134
103.228.114.158
36.134.70.171
207.154.215.3
114.118.27.22
159.65.41.104
104.225.222.218
51.158.104.101
203.158.198.235
167.172.170.145
201.140.116.253
148.70.16.105
192.144.190.178
128.199.0.70
80.34.174.75
118.27.114.246
138.117.76.219
184.18.211.199
139.155.16.50
180.76.161.235
106.13.31.93
101.227.5.120
112.166.242.58
45.118.10.95
80.99.116.50
175.24.123.25
121.142.87.218
49.234.42.143
111.229.92.54
121.4.201.242
106.51.78.18
188.121.2.186
183.250.36.4
121.5.184.252
42.192.154.20
202.139.196.249
198.98.51.104
178.128.250.24
35.208.67.232
163.172.177.22
132.232.77.201
45.231.254.80
139.59.42.229
42.192.156.183
81.71.119.79
103.12.242.98
106.53.112.52
110.191.237.202
98.195.176.219
1.15.76.31
81.25.152.139
129.211.75.184
165.22.186.178
182.76.27.88
139.198.27.217
159.75.132.34
58.246.251.27
139.59.35.114
206.189.49.82
106.75.141.160
106.13.71.54
49.234.92.228
103.127.67.194
106.13.216.115
85.250.95.189
121.4.174.17
104.248.1.174
79.239.193.115
42.192.3.75
42.192.133.140
51.15.216.228
117.50.118.158
85.191.214.236
69.55.54.65
51.158.123.160
171.247.100.4
123.6.5.104
81.70.32.28
82.65.173.65
148.227.227.7
190.19.158.25
162.198.89.189
138.197.66.124
134.175.126.108
42.192.42.104
106.12.22.126
159.65.159.164
114.67.89.247
80.114.119.77
128.199.74.213
106.13.27.134
116.30.143.151
113.90.237.131
119.28.83.77
157.230.11.164
211.200.178.178
121.5.222.170
165.22.99.216
104.248.253.192
106.53.239.180
81.70.100.58
168.63.138.127
143.110.170.102
150.158.198.222
121.69.89.78
45.156.185.28
45.164.131.4
41.226.29.185
106.75.226.140
184.22.80.28
121.5.183.216
165.232.154.119
177.157.111.97
99.152.118.172
180.76.50.203
142.93.101.148
132.232.88.59
217.23.138.17
159.75.203.4
200.27.113.133
179.124.36.196
1.116.69.188
219.138.227.212
135.148.164.52
112.134.161.102
42.193.96.159
219.153.74.70
89.228.150.213
49.233.11.118
122.114.5.135
177.73.2.57
170.106.151.247
31.27.105.102
46.101.141.155
176.215.110.43
159.75.44.132
185.247.225.85
81.69.99.51
121.5.65.156
119.28.100.102
157.230.83.80
101.32.34.85
91.138.228.31
80.249.147.84
49.233.183.15
111.229.237.226
73.203.141.143
144.126.199.235
171.100.51.250
138.68.27.174
190.104.2.46
148.70.33.136
187.226.158.168
192.241.185.120
150.158.180.94
81.70.163.127
172.81.234.10
207.154.228.201
49.232.221.113
59.14.34.130
118.68.169.168
81.68.69.54
177.154.40.31
45.61.186.12
118.27.30.111
82.156.190.164
122.114.70.12
104.248.232.207
165.227.196.229
123.31.17.62
34.87.59.236
219.152.169.167
31.220.52.161
119.28.55.81
172.245.134.88
222.90.28.99
49.232.83.86
180.76.57.58
187.72.3.125
138.121.130.138
141.98.10.27
170.254.226.157
114.242.9.53
159.65.51.82
42.193.2.199
42.51.39.247
23.154.177.67
199.195.250.167
106.54.98.89
77.131.74.238
178.62.63.15
190.111.246.33
106.12.132.47
1.15.119.13
35.186.145.141
178.235.21.167
119.123.227.66
103.31.47.58
182.61.136.198
173.212.12.198
119.28.156.31
13.92.28.210
152.136.132.163
103.110.192.34
101.33.120.154
202.154.180.51
180.215.130.5
167.99.66.74
94.11.213.49
106.54.194.189
188.157.144.148
81.70.159.196
13.82.229.123
203.88.48.251
165.154.230.43
212.89.10.137
188.166.224.24
121.4.79.142
81.68.177.136
104.248.36.3
49.233.181.31
49.65.246.100
152.32.129.40
106.12.61.190
46.101.19.133
14.63.220.150
129.204.209.175
104.236.182.223
61.147.209.170
106.55.94.189
121.5.138.234
120.41.239.249
124.79.244.108
37.34.210.121
121.4.228.245
82.156.249.184
206.189.189.7
1.20.235.199
121.201.125.98
121.4.204.252
37.189.211.79
71.237.20.87
68.183.52.2
212.248.8.4
45.61.51.50
81.71.139.210
122.225.107.15
121.4.111.232
8.37.43.164
82.156.203.182
62.148.227.173
150.158.179.239
212.142.134.150
46.101.97.5
138.197.19.166
168.61.20.27
89.219.16.149
58.147.187.38
64.227.108.47
186.16.209.210
193.169.254.138
172.81.214.136
180.76.58.64
118.24.230.29
129.226.226.39
139.59.31.142
46.102.175.102
180.76.160.50
106.13.122.126
180.244.90.115
68.183.134.255
111.230.56.118
103.233.2.134
14.46.199.21
42.193.183.39
157.245.161.35
49.233.100.14
104.236.230.184
61.141.64.65
116.233.88.206
62.234.239.134
81.70.164.173
149.129.237.83
196.203.111.12
81.71.128.51
106.12.4.114
136.228.161.67
173.249.53.116
185.238.73.223
49.235.196.73
118.189.84.210
159.65.64.70
103.47.81.151
194.31.169.48
103.100.159.48
106.54.167.68
81.248.104.172
167.249.42.226
81.70.103.122
222.128.14.106
13.71.96.220
121.131.164.62
223.223.190.131
1.15.183.15
49.232.214.152
1.117.150.74
189.28.162.87
119.28.140.54
190.5.114.12
82.156.238.151
41.226.29.161
162.243.91.84
188.166.69.132
87.216.94.165
1.14.153.212
36.81.15.226
140.238.14.170
178.128.206.34
200.180.250.200
129.204.66.236
152.32.141.176
202.21.123.66
106.242.97.227
202.108.31.172
159.75.140.97
119.29.193.73
121.4.207.184
129.226.150.149
42.192.77.243
181.30.99.114
49.232.103.197
190.145.192.106
103.20.220.51
103.122.5.194
67.205.165.105
122.51.64.150
209.141.57.147
196.28.248.220
128.199.174.204
104.248.181.156
121.4.122.93
103.226.250.228
142.93.108.131
116.112.207.164
167.71.162.16
120.48.30.135
120.53.121.152
85.91.32.180
160.16.238.169
84.243.236.167
114.7.162.98
104.244.78.233
181.199.122.86
157.245.124.218
151.69.170.146
81.17.16.111
186.210.89.135
42.192.182.243
106.75.222.175
220.117.154.138
200.70.56.204
209.97.147.223
76.186.120.184
150.158.164.72
157.230.58.208
150.158.199.106
106.12.32.53
159.89.172.207
193.169.254.113
1.116.200.22
128.199.249.246
49.158.1.26
115.159.92.26
139.199.5.50
51.210.7.182
222.128.46.1
49.234.41.154
49.233.75.234
5.104.196.143
198.199.94.78
106.13.6.113
182.61.19.134
133.130.110.249
106.54.44.202
112.95.225.158
61.147.209.2
106.13.147.33
45.249.245.101
1.15.131.111
198.199.79.241
203.151.43.167
138.68.4.8
200.107.29.4
159.65.147.235
81.200.212.13
152.136.205.110
182.254.211.79
49.235.202.65
163.53.177.47
49.234.59.246
124.205.197.194
129.28.162.79
112.196.9.88
59.46.13.123
58.87.65.28
195.29.51.133
81.68.187.202
81.68.93.34
134.209.158.183
120.92.89.30
62.10.37.243
122.14.196.149
49.205.216.183
203.57.6.227
138.197.173.66
173.95.124.150
187.226.149.66
113.179.134.98
111.93.4.46
92.241.82.242
81.69.240.188
106.13.177.14
1.116.59.53
178.128.212.164
110.83.161.163
195.158.28.62
187.44.230.172
148.70.244.175
139.59.29.18
200.204.174.163
106.58.185.232
106.53.139.209
189.1.163.101
103.92.24.245
62.182.203.252
132.232.4.33
152.136.196.155
178.62.7.30
181.60.79.253
134.236.166.230
109.131.54.124
104.196.138.254
197.5.145.69
120.133.52.105
81.69.191.200
106.52.231.91
194.105.205.42
188.166.245.237
209.97.186.17
68.183.86.159
159.65.128.16
49.232.112.204
197.153.29.224
123.140.114.252
138.128.216.220
178.237.56.4
49.235.110.143
140.207.232.37
148.72.65.173
132.232.6.207
42.193.189.254
18.185.36.13
94.34.58.110
200.73.130.238
91.232.197.100
118.244.206.195
114.67.95.121
74.57.166.153
64.227.67.106
42.192.209.86
120.25.75.28
45.240.88.142
178.128.227.7
194.87.110.166
58.57.20.55
188.166.84.158
45.128.207.167
109.116.41.238
167.71.170.71
49.232.130.105
177.47.194.82
171.34.70.28
8.21.11.86
161.97.82.206
121.5.55.53
128.199.143.19
165.227.211.13
121.5.212.182
200.225.249.204
114.251.154.123
125.70.110.12
152.32.239.166
103.160.37.157
217.113.120.51
103.15.251.66
42.192.76.45
81.68.250.207
106.55.253.135
179.218.185.156
211.159.147.235
211.161.60.21
195.19.102.173
201.219.11.21
187.157.23.243
177.130.20.62
119.123.224.65
79.188.68.89
220.163.125.148
78.94.181.182
103.231.228.244
67.205.187.65
152.136.192.148
104.236.228.230
121.5.107.141
140.249.214.43
49.234.80.135
106.75.165.225
161.22.34.150
175.123.253.220
93.108.242.140
181.209.159.166
79.160.128.24
82.156.107.31
196.216.73.90
134.122.177.29
59.188.2.30
121.5.192.201
121.4.58.20
119.45.246.61
200.88.48.99
104.248.130.200
138.68.81.162
182.61.149.103
182.61.13.234
106.13.12.199
106.13.78.83
106.12.89.26
187.74.221.42
189.126.28.28
115.159.158.234
95.169.9.45
200.222.26.130
1.15.124.128
182.74.61.136
178.60.38.58
139.59.69.76
132.232.77.33
211.159.165.137
43.239.122.66
202.106.10.66
103.164.81.125
106.54.173.124
209.97.140.232
60.241.81.42
59.152.192.142
200.201.187.98
112.64.163.198
103.86.49.28
94.13.10.7
138.197.184.178
182.254.174.101
148.235.82.68
181.57.159.34
81.69.12.243
165.227.203.57
185.248.131.160
218.0.60.176
84.201.165.240
211.173.58.253
94.191.118.222
36.108.172.190
111.229.194.156
129.204.39.125
49.235.77.193
27.150.171.149
81.68.130.100
43.252.73.91
79.50.251.247
187.217.199.20
106.53.56.213
41.222.0.16
201.218.215.106
183.82.107.165
103.96.220.115
220.132.75.140
104.171.245.133
119.29.180.85
52.140.103.80
187.188.107.115
177.140.82.160
46.252.25.179
168.227.78.94
103.108.242.13
1.201.161.32
81.69.37.18
171.214.16.158
179.131.11.234
61.93.240.18
49.235.0.9
35.207.98.222
115.159.208.207
174.138.0.130
139.59.188.13
143.244.140.145
182.75.139.26
82.156.183.197
5.166.25.190
103.164.81.195
143.244.146.44
100.34.20.148
212.231.197.226
41.221.91.194
187.9.119.46
41.82.208.182
106.12.125.249
91.205.75.47
200.52.80.34
111.93.214.67
2.236.108.242
42.193.43.57
106.75.153.166
112.160.220.233
139.199.80.75
220.118.147.57
40.114.107.245
186.122.149.6
104.225.154.86
143.110.176.216
51.210.182.163
101.52.124.105
1.15.189.150
46.101.138.138
106.52.29.118
192.252.211.54
121.5.208.243
150.158.159.248
205.185.121.222
123.207.221.66
34.230.85.189
112.31.56.247
1.117.147.110
218.93.225.150
186.90.134.233
190.128.131.102
171.6.250.186
161.35.70.5
71.58.109.127
178.219.163.98
163.44.165.205
165.22.222.77
46.101.204.20
42.192.85.89
81.70.168.63
204.48.22.232
172.96.124.247
212.192.246.213
49.233.251.161
42.192.144.149
180.76.232.116
49.234.121.64
43.129.233.101
140.143.195.181
111.67.206.224
118.25.2.109
46.101.224.184
49.51.184.162
107.161.182.82
167.99.231.236
197.156.101.1
68.183.144.104
104.236.124.45
197.159.195.159
122.51.230.155
170.150.220.12
37.252.187.140
42.192.77.48
62.133.142.234
167.71.95.157
111.231.71.53
159.65.176.156
23.95.164.237
183.62.156.138
20.188.8.225
111.198.33.54
212.64.84.143
189.240.225.205
49.135.34.98
124.90.52.9
188.166.164.10
43.128.48.218
117.203.251.237
1.15.58.114
71.127.43.53
180.76.246.205
144.34.247.135
182.254.220.148
210.202.8.64
43.225.157.116
42.192.69.45
212.33.250.241
14.99.117.194
177.126.222.22
206.189.143.15
103.229.124.54
60.248.108.32
139.155.34.181
199.195.248.154
5.141.85.82
1.14.61.204
68.183.189.30
138.36.3.180
46.101.116.212
89.223.95.84
188.166.252.244
58.246.187.126
111.13.102.195
211.234.119.189
49.233.174.134
49.51.186.183
81.69.38.86
45.55.224.209
59.152.237.118
81.70.39.136
49.232.58.114
167.99.69.76
118.195.141.111
46.101.0.38
61.184.199.94
104.248.146.12
93.108.232.202
1.117.115.96
185.204.216.10
121.78.221.51
142.93.63.163
5.189.152.131
60.210.40.210
165.154.230.100
107.170.153.57
182.73.123.118
203.130.255.2
43.129.41.120
221.221.56.191
103.29.70.242
150.158.117.32
171.226.2.225
81.70.103.136
81.68.103.232
192.241.134.183
117.50.29.136
106.12.140.126
154.221.18.237
124.156.139.172
49.234.151.187
103.231.46.66
220.101.5.84
207.154.233.204
165.154.229.116
47.180.212.134
197.156.72.154
138.197.165.106
201.151.6.30
139.186.122.214
68.183.117.96
139.155.238.206
179.53.42.69
81.70.177.181
92.39.79.202
143.110.248.63
45.120.136.152
101.36.109.104
119.45.229.160
118.101.192.62
124.152.76.174
175.27.190.174
61.177.173.22
132.232.105.55
185.186.84.47
121.4.235.63
112.17.13.8
203.170.129.197
178.62.119.91
104.131.178.223
178.234.37.197
62.28.217.62
175.125.94.141
152.136.150.84
165.22.176.113
68.183.66.107
60.250.164.169
159.203.179.230
115.236.52.122
159.75.77.193
35.221.82.156
119.29.23.88
111.177.32.171
164.155.104.184
122.166.237.117
81.4.110.153
121.4.233.83
139.186.158.46
119.31.126.104
1.15.220.192
65.49.204.184
148.70.38.183
128.199.167.246
79.67.29.187
178.216.248.36
68.183.16.127
115.239.218.149
36.7.159.60
178.128.84.92
38.91.102.77
118.195.166.161
41.111.133.103
60.170.255.63
104.37.188.123
159.75.217.68
192.141.107.58
201.163.1.66
138.197.151.213
88.146.196.109
24.232.1.6
115.113.156.66
1.116.210.150
200.233.224.118
157.230.185.9
81.68.103.141
222.139.245.70
160.153.252.38
200.126.138.38
4.7.94.244
106.54.238.208
121.137.106.165
212.64.91.71
178.238.231.59
62.210.205.143
113.31.117.110
161.97.79.41
179.107.34.178
114.104.203.99
203.125.29.136
119.45.239.67
114.117.194.248
158.51.87.152
220.78.28.68
42.193.1.6
207.154.193.178
62.28.222.221
106.75.10.4
162.244.25.42
162.243.116.41
115.159.195.53
129.28.199.85
212.64.66.135
82.156.26.144
178.62.14.181
41.208.150.118
5.45.109.147
47.254.184.225
139.59.231.120
118.195.146.83
94.97.239.40
212.33.205.121
118.195.140.92
45.171.144.61
65.21.104.59
111.13.102.171
82.156.2.29
49.37.211.208
167.71.67.196
222.186.160.114
157.230.128.135
190.104.25.210
43.224.128.77
188.166.147.170
199.195.252.105
154.8.197.250
140.143.187.21
103.81.153.133
119.45.190.106
115.160.131.70
132.232.85.202
188.166.229.193
212.129.5.157
183.159.211.155
187.103.8.90
13.72.215.164
143.110.190.26
201.222.57.21
113.89.33.70
1.117.184.86
159.89.236.71
103.219.112.63
41.76.175.178
170.244.44.51
119.45.183.229
46.101.83.108
94.254.0.234
154.92.23.172
178.62.2.24
140.86.39.162
115.186.130.3
101.64.225.28
67.207.89.15
160.16.145.224
134.122.130.234
103.118.47.163
180.245.203.215
203.99.60.219
134.17.5.55
178.76.226.183
189.146.208.140
185.91.166.37
182.52.31.7
121.5.21.112
134.122.72.221
113.128.8.85
180.167.18.22
49.234.96.29
200.106.192.2
43.129.250.159
164.155.104.12
34.83.137.52
185.231.189.127
52.149.183.94
49.235.167.41
122.174.157.124
130.25.167.4
1.116.154.54
114.7.202.173
153.122.160.3
140.249.206.138
104.248.147.78
36.133.35.228
138.197.111.192
192.166.219.36
121.4.113.101
121.6.219.179
178.128.232.28
139.59.241.75
181.53.251.199
201.249.180.234
121.5.49.217
119.28.61.253
160.16.237.219
121.5.137.64
197.26.76.36
202.139.198.143
81.70.252.60
1.214.220.227
157.230.132.100
194.152.206.17
42.159.200.101
68.183.221.115
37.128.119.195
49.235.172.41
165.227.169.7
106.3.143.252
192.241.174.44
115.182.105.68
209.141.53.124
129.28.166.144
193.112.90.175
139.59.38.252
139.59.186.178
118.24.123.34
91.234.124.6
89.215.210.114
178.62.199.240
107.170.134.125
187.120.241.224
139.198.176.198
118.24.99.230
64.185.3.117
81.227.30.49
159.65.142.172
219.138.227.208
165.227.196.43
106.120.75.98
222.124.214.10
165.22.181.245
181.176.148.27
111.90.190.52
89.205.35.133
208.109.9.14
121.5.26.106
1.116.9.96
45.61.187.180
138.197.142.81
182.61.19.225
103.25.196.54
197.5.145.26
107.180.72.193
185.118.48.206
206.189.114.90
49.235.248.61
47.181.159.172
190.143.137.114
203.154.162.65
101.32.15.39
188.187.0.42
112.64.33.38
167.114.185.68
118.174.139.118
91.216.133.132
49.232.2.249
42.194.148.24
79.236.247.174
68.168.142.91
162.243.73.244
106.13.230.61
34.73.72.157
143.110.212.213
190.112.41.86
81.170.242.109
81.68.70.18
42.192.179.14
61.218.5.190
175.125.94.166
45.226.80.198
23.224.97.166
80.211.216.227
82.156.28.70
41.82.49.220
104.236.64.212
187.66.96.15
186.4.222.45
187.189.232.60
197.52.138.187
218.57.129.42
196.43.172.4
43.254.156.185
20.188.107.54
78.138.0.158
123.206.174.21
106.12.91.206
205.164.156.145
44.192.253.31
35.242.136.58
192.144.218.46
183.234.11.43
1.14.158.200
131.196.219.79
183.17.124.94
174.110.88.87
123.131.165.105
41.78.137.70
1.116.200.77
120.48.21.252
157.245.184.148
187.188.251.219
121.5.67.175
1.14.142.52
115.159.58.193
106.75.48.55
82.156.204.39
5.188.67.56
1.189.195.61
124.156.141.121
5.101.140.75
49.232.160.156
170.106.50.217
176.133.105.208
203.195.172.141
118.25.88.204
104.131.15.132
117.203.249.34
168.187.77.177
78.118.96.201
123.212.190.82
182.59.139.27
46.101.254.194
51.77.200.101
152.136.108.178
122.193.19.6
144.34.175.246
58.87.120.53
147.139.135.198
171.237.86.153
209.141.36.169
113.28.243.105
190.202.147.253
213.79.50.1
117.4.244.25
106.75.119.202
177.87.144.26
120.92.133.80
103.206.138.231
143.198.218.114
92.140.13.106
107.189.1.174
144.34.240.47
122.114.66.228
159.65.154.184
208.97.99.214
210.161.165.41
222.112.220.12
106.12.79.216
129.28.172.220
165.232.136.174
186.248.79.71
157.230.7.236
3.93.216.119
142.93.5.16
106.38.121.162
81.68.165.205
108.36.253.227
182.71.85.94
103.200.22.52
121.5.137.166
111.67.199.161
111.243.28.202
119.27.165.52
177.207.164.143
45.55.233.213
121.5.55.208
138.197.171.79
42.192.179.234
170.106.34.245
218.17.185.223
122.51.38.138
81.29.214.123
37.0.10.198
210.212.233.34
129.28.103.85
181.49.173.81
47.74.10.173
220.85.144.136
81.71.85.116
200.225.216.65
58.221.101.182
1.15.229.173
37.139.16.229
45.8.224.159
81.68.163.114
198.211.121.90
36.134.155.34
182.61.46.204
143.110.252.238
49.206.18.102
195.206.60.116
180.76.112.15
159.75.93.249
106.52.216.170
1.15.234.104
190.145.123.26
144.34.234.6
203.172.76.4
209.141.42.147
64.227.110.207
J
81.70.86.218
40.113.118.199
168.234.16.43
125.26.179.111
106.13.78.82
83.150.215.101
221.226.39.202
159.89.47.106
41.76.175.130
128.199.144.54
185.53.170.6
62.234.123.35
176.112.79.111
91.225.77.52
106.53.229.39
116.110.90.202
68.183.189.212
132.232.94.80
58.229.240.81
82.196.5.221
185.68.145.163
159.89.80.140
36.133.35.234
14.102.74.99
122.163.127.182
124.156.153.16
103.40.249.242
37.8.214.76
42.194.168.209
159.89.22.184
79.249.255.213
103.31.38.216
180.153.91.17
152.168.180.247
112.199.98.42
190.66.51.41
31.181.173.58
188.166.161.20
211.45.247.122
113.31.102.8
139.59.109.51
85.247.0.210
129.204.143.161
103.199.98.221
1.15.175.22
159.203.63.125
104.236.136.200
8.208.14.159
165.3.89.139
189.28.240.147
209.141.53.8
121.4.109.12
164.52.43.38
103.76.252.6
1.117.226.242
140.143.0.155
128.199.42.106
106.53.225.185
60.251.59.148
51.158.152.223
36.22.187.34
106.58.215.201
179.125.43.36
58.220.10.210
118.25.2.250
36.81.174.99
221.229.219.104
136.56.165.251
82.156.24.34
202.165.25.216
106.54.86.111
1.116.87.58
35.244.25.124
110.137.238.107
200.110.88.75
82.66.26.235
41.79.78.41
193.112.24.94
95.85.39.74
123.17.3.110
104.248.49.90
159.203.185.151
112.6.233.210
180.101.233.74
120.92.107.174
165.154.234.37
164.90.212.168
1.15.178.149
201.236.134.154
49.234.94.150
106.13.33.23
186.67.248.5
152.136.212.92
164.90.191.216
114.67.95.61
125.65.82.7
118.194.233.231
187.170.239.81
13.74.46.65
143.110.254.142
218.75.211.14
170.106.110.16
52.142.47.190
157.230.190.90
81.68.136.135
115.236.67.42
81.68.155.143
62.234.78.19
81.70.176.128
210.0.192.75
161.35.112.155
120.53.223.193
118.25.182.61
64.202.187.246
154.72.194.207
200.70.56.202
66.70.142.231
1.117.113.207
167.86.75.179
45.90.109.140
222.255.148.167
106.75.122.38
190.64.137.173
101.227.90.100
49.234.111.57
96.23.195.210
143.244.136.52
49.235.93.87
178.124.177.180
34.72.163.246
141.98.10.29
115.159.45.239
36.133.183.57
118.195.163.31
197.156.248.157
120.211.179.28
106.12.141.142
84.2.226.70
104.248.149.130
134.209.32.200
45.55.134.210
91.200.100.36
152.32.145.90
1.117.1.19
221.2.35.78
42.193.110.235
81.70.252.79
82.77.36.45
200.105.183.118
192.81.218.93
114.117.211.192
187.9.78.166
183.111.96.15
79.84.114.36
119.45.113.61
120.48.18.178
60.171.208.199
190.2.18.77
178.124.214.18
139.155.252.205
64.227.104.65
106.52.117.86
159.89.115.75
81.69.37.85
120.131.3.91
123.177.23.202
159.89.165.164
37.220.114.35
221.140.10.81
143.110.239.119
134.122.57.194
186.223.111.120
139.215.217.180
84.1.30.70
45.172.41.248
46.101.245.176
58.220.87.226
67.162.140.70
213.92.51.37
34.101.148.84
122.51.228.129
103.23.155.213
13.127.243.53
176.94.181.172
134.175.59.225
51.15.205.46
117.50.1.141
187.149.66.140
121.5.160.86
177.22.35.126
118.195.177.213
139.155.69.205
42.192.6.191
47.96.227.235
128.199.167.161
82.156.46.45
176.122.158.234
161.35.179.74
121.5.141.234
49.232.223.38
167.99.251.39
35.200.114.187
140.238.242.115
119.27.169.77
106.39.21.10
182.61.3.42
178.128.148.229
81.214.137.80
139.99.43.170
221.122.73.130
120.53.227.85
159.75.130.111
187.228.134.56
106.12.201.95
190.187.240.84
134.209.228.253
27.151.29.96
1.14.43.165
167.99.137.75
106.12.137.97
42.193.114.76
118.89.80.50
115.236.136.96
106.52.178.166
115.238.62.154
1.116.131.247
197.3.6.178
178.217.152.134
139.198.5.79
194.44.135.70
203.205.33.133
104.248.155.136
200.41.86.59
180.76.39.214
155.94.182.136
139.186.128.90
139.59.3.114
117.50.84.229
104.236.224.69
191.33.193.168
42.192.56.21
103.214.112.199
112.64.32.118
20.188.89.81
81.68.253.95
51.159.67.187
152.136.102.64
180.76.146.239
81.68.213.221
13.72.86.172
27.19.193.19
68.168.141.140
102.128.78.40
1.201.137.142
206.189.206.212
165.154.232.107
185.46.15.254
81.69.59.246
120.53.107.223
121.141.70.72
180.76.235.75
148.66.142.135
139.186.153.247
106.55.25.102
121.204.191.232
35.209.61.149
117.160.220.44
20.43.184.53
106.13.94.193
36.133.5.111
83.221.210.233
106.53.135.98
1.226.12.132
45.61.188.109
159.65.240.232
104.131.231.109
81.68.253.14
178.62.4.118
45.61.188.224
190.128.241.2
177.189.244.193
167.71.239.134
122.51.100.145
121.4.43.247
167.172.133.221
200.53.221.98
46.101.206.30
49.234.209.124
115.159.40.69
103.99.251.27
138.197.32.150
183.196.230.35
42.194.184.204
1.15.246.16
128.199.2.81
118.70.233.231
119.28.47.248
193.248.242.234
1.15.220.145
191.217.16.249
152.57.68.30
171.101.227.2
142.93.232.197
112.111.0.245
222.212.85.136
81.70.153.243
107.170.124.31
202.192.34.106
150.109.144.103
5.227.126.152
121.4.56.32
78.11.52.18
66.172.99.210
62.213.10.22
111.200.54.67
46.10.161.64
201.234.66.133
181.50.251.25
138.201.156.62
122.51.154.84
179.43.149.15
89.250.148.154
119.29.77.63
49.51.183.1
49.234.151.140
139.199.25.110
178.128.72.84
117.50.3.134
124.156.105.251
111.132.7.174
120.48.7.156
185.235.40.249
49.51.182.144
43.230.7.65
183.238.243.30
179.27.60.34
46.101.113.206
182.61.59.14
218.94.148.222
103.246.106.118
128.199.142.33
183.82.97.45
111.119.187.26
36.89.68.38
107.170.250.177
206.189.202.165
31.47.192.98
157.230.230.126
94.56.105.150
180.215.134.25
5.26.200.46
106.53.239.28
196.220.67.231
219.154.81.148
121.5.237.100
104.129.186.62
113.116.5.5
138.68.243.208
165.22.47.217
182.69.131.254
62.234.137.128
45.239.11.254
54.36.150.214
198.199.97.218
91.221.174.90
1.117.115.51
189.178.186.226
49.235.84.72
61.51.111.187
47.75.214.234
109.167.197.20
206.189.64.176
45.158.199.156
89.128.127.18
134.175.135.136
107.170.131.23
117.83.83.248
68.194.9.27
148.102.25.170
116.12.51.206
103.124.95.136
43.128.14.176
155.230.24.64
119.45.168.212
78.37.125.18
144.91.87.193
114.118.2.76
161.35.12.92
83.36.48.61
179.126.141.32
150.158.163.228
58.240.9.47
182.253.26.107
142.93.223.118
82.196.6.160
178.217.173.54
121.5.41.157
175.197.233.197
37.204.33.62
106.52.204.39
91.171.49.41
103.167.53.253
51.81.86.69
104.248.56.150
175.27.245.114
103.44.156.147
120.33.72.202
106.13.88.180
183.101.1.82
147.139.133.164
84.197.31.114
113.161.241.114
106.75.211.48
106.51.66.90
61.138.100.126
121.5.159.184
106.38.158.131
181.198.208.180
139.198.172.123
134.0.203.141
171.6.227.39
118.27.31.112
54.39.235.200
91.247.251.8
81.70.146.205
181.30.22.98
160.124.49.170
139.198.116.95
203.192.219.7
103.205.68.2
175.6.40.14
191.243.60.140
114.67.110.126
117.121.215.101
64.227.21.69
49.234.235.16
46.101.5.100
180.175.224.8
124.127.132.22
116.193.190.233
82.156.218.241
117.186.117.22
139.155.55.250
159.75.92.165
210.114.19.133
203.210.239.130
91.82.219.162
106.12.160.173
38.91.102.84
80.241.83.198
147.139.135.212
143.244.138.247
125.21.227.12
191.84.247.162
14.35.205.150
159.65.190.130
113.128.32.146
1.117.102.153
50.251.216.228
178.128.218.243
188.170.13.225
66.112.220.24
183.82.34.250
103.90.224.173
81.68.178.115
154.210.130.115
49.232.93.95
165.232.141.0
149.129.253.14
150.138.116.141
89.36.162.105
106.52.9.154
117.239.209.24
61.133.122.19
66.98.127.236
188.152.189.220
222.100.229.131
188.25.45.244
14.142.166.44
165.227.114.134
137.74.156.202
180.76.53.208
47.74.39.116
81.68.175.41
112.19.174.226
167.99.233.40
177.225.146.112
197.5.145.46
49.234.41.108
150.158.175.63
148.70.110.75
186.84.20.14
107.172.248.168
114.242.143.121
117.50.119.185
175.24.103.72
81.70.92.136
46.43.0.34
143.198.174.177
121.5.200.128
42.192.178.22
134.175.120.106
116.193.190.15
81.69.160.121
82.156.29.57
35.190.206.83
1.116.75.185
201.131.29.178
157.245.80.200
167.71.91.169
107.180.102.192
49.232.143.235
106.54.90.60
177.170.60.3
20.42.84.12
118.97.247.186
154.8.146.181
121.4.35.38
152.32.169.173
82.156.182.225
117.50.92.182
211.26.187.128
121.4.175.18
200.137.220.110
82.156.30.102
197.227.3.117
40.68.90.206
20.73.183.247
82.157.19.253
49.232.106.221
202.51.74.123
154.8.213.126
121.4.68.87
36.94.199.146
84.154.23.90
81.0.63.162
161.97.106.67
106.12.107.61
95.163.104.122
117.215.163.207
175.6.115.99
187.188.169.123
165.22.207.73
81.70.151.86
82.156.62.147
117.102.65.2
139.217.119.86
180.76.232.66
203.159.80.91
20.46.114.59
49.232.208.26
165.169.241.28
192.241.141.233
93.51.29.92
168.196.96.37
153.126.184.237
123.140.114.196
87.225.104.160
67.216.209.28
223.197.151.55
77.93.60.100
150.109.7.77
61.2.154.149
117.141.253.80
20.64.157.95
116.193.191.92
115.159.154.54
144.76.84.125
190.151.100.10
84.242.124.74
119.29.216.238
165.227.46.89
138.68.180.92
188.166.184.215
206.189.57.241
77.20.92.172
14.5.12.34
81.70.43.53
197.5.145.88
106.52.55.146
115.159.150.172
132.248.130.178
106.13.116.30
181.143.10.148
192.141.240.9
209.141.37.168
106.12.56.126
49.235.61.225
129.226.170.156
24.28.79.79
124.207.165.138
106.12.121.160
45.61.188.118
111.20.10.5
190.117.161.43
106.54.67.25
47.50.246.114
160.16.209.141
220.130.178.136
124.156.129.218
82.156.37.69
43.243.87.144
106.75.24.157
121.5.144.154
121.5.125.9
81.68.93.225
123.114.208.30
45.12.90.67
188.254.0.218
188.166.210.204
122.51.135.36
171.15.17.161
121.5.68.249
160.153.234.75
120.48.5.252
103.116.46.57
37.45.237.82
83.174.237.211
175.24.125.23
1.251.239.18
202.56.198.22
51.15.137.236
1.116.17.86
177.52.28.116
202.96.98.106
103.255.216.43
186.3.198.36
139.186.67.94
143.244.186.113
104.248.150.150
60.219.171.134
58.33.49.196
117.186.96.54
121.4.180.217
185.103.239.119
58.211.203.122
13.76.82.135
1.15.253.116
46.13.36.189
81.71.76.253
113.31.117.196
91.238.230.148
104.131.249.57
23.95.113.133
159.75.96.110
191.31.21.176
165.22.16.134
120.48.27.176
177.220.173.127
178.128.247.181
20.52.60.217
37.201.54.187
139.255.87.213
190.144.182.86
121.5.55.30
52.131.246.255
107.189.10.140
36.66.16.233
1.15.223.171
165.227.182.136
82.156.49.119
37.0.11.249
172.81.254.82
43.129.177.177
49.235.68.144
52.90.60.190
175.158.38.47
159.75.124.187
159.65.181.179
106.53.138.16
1.15.92.61
187.202.82.63
139.186.82.39
1.116.81.51
212.64.79.154
14.29.64.91
134.209.248.200
129.204.67.113
115.70.208.37
1.117.76.146
116.110.10.145
64.227.105.65
39.109.126.11
49.234.22.220
128.199.33.46
49.232.43.42
114.7.202.172
109.86.226.133
82.156.105.147
196.43.155.209
134.175.118.218
34.64.215.194
62.234.4.228
34.81.67.236
183.91.153.58
150.158.110.27
64.225.10.188
138.197.149.97
157.245.118.3
23.97.180.45
132.232.93.220
119.6.89.224
68.183.88.166
201.219.218.130
144.7.116.1
58.87.73.46
103.45.186.249
129.28.185.31
103.10.169.212
49.234.99.246
61.163.4.185
212.2.230.242
223.197.175.91
193.93.250.139
210.213.240.230
179.48.228.10
86.135.241.131
81.70.162.129
152.136.227.172
144.34.162.249
153.122.64.132
1.15.23.207
122.51.55.171
128.199.137.91
186.250.48.17
175.24.101.37
202.191.56.69
180.76.124.53
37.186.229.30
180.167.0.102
139.59.57.39
93.42.117.137
67.207.94.180
107.143.98.175
200.73.128.181
45.4.5.221
218.81.161.194
161.35.204.228
49.233.195.230
177.91.80.11
185.90.136.194
51.158.96.111
103.86.158.46
128.199.152.105
201.148.20.53
134.209.79.45
211.193.31.52
120.48.19.10
206.189.225.85
173.212.240.105
205.185.127.224
67.205.178.62
88.250.48.56
175.141.46.150
213.79.50.139
121.229.19.200
45.120.69.82
175.27.156.124
58.87.72.225
161.35.9.18
117.211.192.70
170.106.117.90
51.89.103.161
159.89.94.70
62.234.6.66
69.126.120.147
109.26.152.162
170.79.14.20
161.35.193.16
49.234.88.132
102.164.248.235
157.230.12.188
61.147.209.163
122.51.145.30
149.129.252.182
187.170.236.64
72.11.168.29
34.69.148.77
1.15.144.122
51.254.222.185
51.158.76.43
150.95.138.39
198.199.73.239
62.210.201.139
190.9.132.186
103.78.226.245
49.234.25.101
81.68.90.33
81.4.106.147
79.137.217.248
157.230.47.241
115.166.143.14
177.63.255.208
36.154.248.181
176.122.147.143
177.220.161.250
190.82.75.234
106.37.183.34
77.52.12.151
31.28.242.130
66.143.231.89
85.0.116.162
104.248.123.197
203.206.205.179
134.209.149.43
178.161.144.50
121.4.66.196
106.52.51.73
119.28.20.98
189.139.138.234
95.84.240.168
68.183.212.10
14.39.101.234
139.59.81.182
185.62.189.163
201.91.210.130
103.198.127.2
193.8.173.12
138.197.217.164
107.170.121.10
197.5.145.30
95.165.28.122
91.201.240.153
118.98.127.138
118.184.73.14
39.109.123.60
159.75.37.48
103.136.42.83
47.74.57.242
186.96.102.198
1.116.73.156
181.212.4.226
36.67.82.242
82.156.2.187
217.79.187.74
42.159.197.203
211.46.4.196
82.156.72.109
117.50.43.204
208.109.11.147
41.220.143.6
111.231.190.106
139.198.190.189
185.223.53.83
162.248.52.82
14.98.54.222
143.110.251.175
111.231.223.88
109.121.136.19
189.207.242.90
176.111.173.156
121.5.169.115
42.200.66.164
81.70.246.12
106.54.149.118
106.13.237.151
81.69.248.82
118.69.55.101
1.0.136.134
104.236.72.182
206.189.119.230
129.204.46.170
183.2.99.231
110.159.153.31
42.192.15.244
81.68.86.113
121.4.92.128
140.143.244.192
159.65.142.192
159.89.115.74
143.110.189.171
106.75.254.216
81.150.9.251
123.207.249.130
222.102.33.233
102.164.61.218
182.254.145.209
186.234.249.196
103.45.118.25
107.173.181.146
138.68.234.162
146.247.178.98
178.128.248.121
167.172.205.116
103.94.173.11
117.248.249.70
78.131.56.62
58.210.241.5
65.99.111.159
170.106.65.54
49.232.198.139
43.128.58.231
179.43.190.28
180.250.173.139
177.220.174.32
61.250.146.12
159.203.73.181
95.87.198.58
183.232.48.168
168.138.230.95
209.127.178.214
189.240.225.206
1.2.164.228
182.254.151.198
68.183.89.147
170.81.252.10
45.174.236.225
93.104.214.189
147.139.168.211
209.141.49.70
125.88.109.8
170.106.170.114
122.51.103.120
116.112.207.169
183.240.157.2
138.68.21.125
139.155.235.28
76.178.136.194
37.139.24.190
205.185.127.28
42.190.161.79
89.144.207.111
93.42.108.107
91.122.49.173
195.239.211.242
106.51.85.93
81.71.138.119
61.2.243.112
201.72.179.51
201.149.54.148
118.25.24.84
51.15.222.12
104.131.14.14
112.196.117.137
14.98.82.230
201.9.151.115
51.15.219.5
190.5.242.114
200.170.218.132
139.186.169.70
1.117.157.86
177.190.185.6
138.197.21.218
211.238.111.61
68.183.105.114
182.61.37.144
52.156.112.141
52.82.123.14
163.172.167.225
116.247.81.99
206.189.233.82
223.68.169.180
202.165.25.171
110.45.155.101
221.232.194.190
49.232.93.149
1.15.85.193
177.67.96.253
42.192.50.24
62.234.53.130
177.96.203.10
52.82.124.250
1.116.242.246
200.45.147.129
121.5.223.154
218.90.138.98
36.110.114.29
193.112.40.96
188.254.0.112
36.66.211.7
115.159.63.123
104.248.28.219
182.61.61.7
1.11.201.18
159.75.24.180
207.195.47.57
186.193.167.210
31.20.193.52
188.166.23.215
219.87.82.30
159.89.105.53
106.55.63.204
106.52.130.250
157.230.230.152
49.234.230.31
124.43.12.185
42.193.96.15
37.156.29.181
142.114.32.196
201.217.195.230
60.30.98.194
190.226.244.9
61.218.135.231
117.71.107.24
14.99.63.146
81.69.21.163
167.71.236.26
54.183.25.166
42.193.146.44
118.27.19.198
81.70.176.31
31.130.206.101
170.106.75.81
40.72.96.125
115.159.65.25
49.234.15.158
121.204.213.37
106.12.10.54
159.75.111.9
171.25.220.230
81.70.161.94
37.130.113.56
106.75.57.20
185.247.225.43
106.13.104.67
120.37.125.254
121.5.63.104
115.248.153.89
132.232.89.186
187.123.56.57
144.168.60.97
150.158.167.22
182.254.220.192
121.5.171.213
122.53.176.252
213.253.201.178
81.70.220.67
103.129.223.98
210.177.223.252
1.15.64.138
27.254.136.29
104.129.60.33
81.70.48.45
61.170.186.219
71.12.177.9
27.71.231.25
1.116.229.124
153.122.190.56
35.240.204.250
176.97.36.97
49.233.60.5
113.193.128.226
147.139.181.90
103.235.170.162
81.68.163.129
45.93.201.148
194.59.165.58
103.242.166.5
216.6.201.3
42.194.184.92
103.100.210.198
192.144.216.247
202.4.42.154
49.234.71.65
200.76.175.62
110.43.42.91
182.61.43.226
66.249.155.244
111.229.220.112
106.12.130.83
1.117.198.25
177.194.53.100
120.148.161.188
113.215.181.54
197.5.145.93
54.39.85.228
1.15.28.148
188.130.254.66
138.68.75.113
121.4.58.192
113.90.236.15
167.172.145.53
140.249.198.98
136.228.161.66
122.51.239.82
200.225.220.38
155.235.136.92
168.128.130.59
191.193.49.157
103.40.8.168
82.156.70.118
117.139.166.27
43.128.46.243
122.51.77.83
181.118.158.132
1.15.50.174
122.51.213.127
200.107.160.198
168.197.24.17
36.159.127.232
119.28.90.103
104.131.186.240
178.128.221.162
52.188.21.187
180.76.121.238
157.245.178.61
89.67.194.91
119.201.109.155
66.112.219.123
165.154.229.128
193.112.169.9
61.80.179.118
175.24.116.109
83.238.125.142
178.128.221.85
93.43.60.194
1.234.44.48
191.19.107.25
164.155.104.202
157.245.189.95
198.98.54.56
139.217.98.200
167.71.232.16
198.89.92.162
51.159.64.186
147.139.132.216
220.86.29.35
86.57.225.112
159.203.82.179
119.28.43.224
190.85.76.102
188.254.0.2
58.213.84.234
165.22.120.146
49.235.196.51
119.10.113.137
47.245.35.63
42.115.245.186
165.22.186.55
122.54.119.182
36.133.94.218
107.180.88.176
113.89.33.109
209.141.60.135
42.192.207.7
24.113.203.226
177.1.213.19
81.70.36.8
125.141.139.29
61.219.171.213
181.189.144.206
113.161.83.12
112.86.40.102
85.221.178.122
51.159.34.57
106.52.141.36
122.51.208.60
68.183.226.236
68.183.145.59
175.27.188.3
119.252.172.117
119.45.212.145
183.134.65.197
210.114.22.29
111.229.138.101
139.155.10.138
107.190.122.5
128.199.149.111
152.136.155.192
165.22.95.66
27.102.132.190
82.65.117.46
209.145.55.25
121.4.68.23
106.13.207.219
45.249.245.181
221.216.95.120
85.18.236.229
165.227.111.80
189.171.145.35
80.232.163.110
104.248.248.126
160.116.119.12
182.208.248.211
222.85.139.140
120.48.25.245
134.209.80.13
179.43.80.6
117.160.207.160
157.230.151.241
116.105.219.51
27.254.149.199
136.144.41.41
217.93.168.212
106.13.197.150
218.200.149.181
42.193.55.36
134.209.103.209
206.189.132.8
68.183.56.198
152.136.232.65
42.193.44.215
1.56.207.130
121.5.22.7
31.47.197.99
167.71.6.91
36.92.241.233
45.55.36.216
192.144.239.174
129.226.67.237
45.40.201.237
51.158.190.194
81.69.236.93
49.232.99.75
162.247.74.206
102.65.2.150
188.128.50.139
51.81.211.79
179.110.36.171
106.75.218.181
192.64.83.51
176.111.173.218
149.129.214.115
159.65.220.18
107.170.76.170
219.145.61.20
201.168.156.26
173.249.17.96
187.72.177.131
1.15.183.51
134.209.159.32
160.16.56.90
51.81.80.147
206.189.215.113
200.195.162.66
160.16.105.232
183.109.124.137
45.162.4.175
43.129.239.7
180.76.57.102
154.74.130.69
49.234.69.205
14.161.28.224
121.4.255.199
178.201.89.215
51.140.185.84
106.52.17.213
171.240.205.222
160.251.11.126
200.73.131.217
103.117.138.222
49.233.84.191
8.9.231.208
177.81.59.63
209.97.138.179
205.185.125.109
67.205.128.206
104.244.79.229
180.76.245.55
203.177.32.202
34.138.248.212
128.199.182.19
201.87.151.166
162.243.50.8
37.59.46.217
36.134.73.71
45.148.121.224
104.131.91.148
182.151.37.230
42.194.146.74
178.239.55.112
82.156.43.193
185.65.137.245
118.70.175.209
104.128.92.120
190.24.6.162
49.232.216.161
115.238.186.107
51.132.144.126
128.199.72.28
119.29.56.84
118.193.45.176
61.33.108.252
49.234.46.181
49.232.215.196
42.193.184.229
41.223.142.211
121.5.79.13
106.38.203.230
154.221.25.18
121.4.51.142
125.77.23.30
182.61.56.218
104.244.75.95
114.143.141.98
205.185.119.90
119.45.250.229
128.199.193.208
159.65.144.112
103.31.39.178
121.5.242.242
43.129.71.206
49.212.15.145
103.254.72.224
1.117.77.29
190.85.239.59
122.161.194.250
77.244.216.110
139.59.39.200
111.229.191.150
81.71.76.105
42.192.128.166
155.0.32.11
79.249.249.75
47.74.34.63
162.223.90.69
154.8.196.197
76.105.6.59
139.155.6.14
104.236.122.214
82.156.0.215
37.139.9.20
122.114.10.182
111.94.124.8
141.98.10.125
113.183.10.101
139.199.80.67
223.229.218.43
142.93.42.206
37.186.117.123
119.82.135.244
185.164.30.78
121.5.44.215
81.68.236.235
106.13.97.37
73.46.205.33
1.15.32.157
2.56.59.136
39.155.198.114
51.15.11.198
175.125.14.1
213.27.189.252
104.239.142.120
175.210.240.51
121.5.125.231
121.4.12.40
62.217.127.225
106.75.81.45
104.236.69.31
13.70.33.169
185.194.49.132
171.97.31.252
164.90.210.8
67.207.82.163
45.113.93.224
115.186.58.49
139.186.134.246
93.149.12.2
103.255.121.136
74.10.142.70
119.45.9.23
45.172.204.92
196.1.97.206
180.76.124.150
149.129.213.72
81.69.196.130
110.88.160.179
125.141.31.209
106.13.231.16
106.52.12.165
153.121.45.191
82.156.25.181
180.76.160.161
45.119.83.114
122.51.46.47
49.234.100.169
159.75.77.48
101.33.118.129
164.90.237.125
132.232.105.237
185.58.118.79
2.45.179.5
131.72.153.186
157.230.190.64
129.28.78.8
151.67.172.40
45.119.85.157
146.56.198.226
122.51.27.41
49.232.220.200
43.226.71.242
128.199.22.32
210.212.228.207
65.21.154.149
125.25.116.75
107.189.1.178
138.68.185.126
42.194.148.212
156.240.107.61
181.48.139.118
182.76.47.236
134.175.227.112
42.192.138.146
81.68.181.52
152.136.252.116
121.5.162.8
113.190.242.127
203.195.252.228
165.227.226.199
65.18.122.144
185.6.91.219
176.122.132.168
75.119.136.114
218.208.209.217
202.163.126.134
193.232.68.70
202.142.113.174
143.198.106.44
81.70.203.83
159.65.188.65
123.59.120.167
129.204.207.148
139.59.128.104
82.156.235.6
49.234.18.158
106.12.159.231
221.149.121.173
45.183.193.1
86.34.55.5
39.109.123.18
140.249.215.178
116.246.20.2
160.251.8.225
180.102.132.248
118.24.120.26
170.238.6.163
222.128.9.64
36.112.170.36
34.121.59.24
181.30.225.129
124.137.205.59
121.4.236.90
49.232.16.234
179.108.19.214
130.61.101.240
88.212.176.19
110.77.138.156
42.193.101.249
188.166.11.150
8.9.231.146
106.12.197.59
111.74.11.82
175.27.187.24
210.12.42.211
199.195.253.187
14.143.13.198
24.185.76.43
211.253.26.117
222.99.52.216
106.121.4.79
121.4.39.38
159.75.113.136
190.201.223.33
65.21.60.209
171.244.51.114
80.82.47.110
167.71.13.189
165.22.121.56
113.31.108.110
106.12.138.200
103.136.42.230
140.143.39.200
46.101.59.61
142.93.175.83
117.214.32.80
121.5.59.109
86.62.114.139
139.199.34.112
122.14.250.28
194.31.169.167
223.17.1.232
61.102.42.5
81.70.96.157
1.15.50.218
89.35.163.160
81.69.190.192
106.52.152.16
152.32.168.134
101.128.64.46
180.215.23.238
212.68.218.36
163.139.169.79
117.50.63.120
200.60.92.170
81.68.93.5
202.44.43.207
139.199.228.133
42.193.141.202
43.250.157.169
121.4.15.213
82.200.226.226
139.155.39.251
42.193.169.170
5.188.64.174
45.61.187.179
104.236.201.108
81.68.85.132
1.14.134.188
142.93.161.54
94.191.60.181
134.122.5.122
213.244.123.182
125.135.129.246
212.64.29.136
111.67.204.220
61.7.240.182
211.239.124.246
81.165.7.224
118.193.47.131
93.57.86.55
211.159.154.77
190.63.203.162
82.64.32.76
206.189.174.127
167.99.1.123
49.232.142.213
40.118.204.150
206.189.221.23
1.15.70.203
187.188.240.7
150.138.118.185
51.15.170.132
140.143.224.228
223.204.230.100
119.204.96.131
138.117.60.112
121.4.42.125
188.166.185.16
213.33.73.1
190.191.70.202
140.143.39.177
134.175.222.163
46.101.228.29
84.60.128.216
115.73.215.235
61.19.27.253
106.12.95.93
142.93.142.245
149.129.136.55
139.99.89.202
148.72.244.122
36.134.203.156
80.153.177.242
177.75.65.26
97.64.28.252
117.50.73.132
107.189.31.98
52.169.122.231
202.188.20.123
125.209.75.195
79.104.0.82
119.115.105.58
180.184.66.118
37.139.3.151
124.152.76.180
46.146.136.8
1.116.138.154
104.131.180.54
198.23.148.137
40.78.137.136
1.15.182.116
106.53.249.17
202.70.65.229
106.13.212.203
59.120.17.224
180.76.37.181
189.91.234.7
49.232.172.23
142.93.211.192
178.128.217.58
163.13.130.197
80.72.230.76
118.212.146.44
165.154.232.31
152.136.184.156
114.112.69.102
205.185.116.146
213.219.215.67
103.124.94.169
142.93.245.183
103.90.177.102
122.2.183.154
107.173.147.59
199.195.253.222
58.64.185.85
128.199.46.236
95.77.98.196
1.15.86.71
80.254.102.78
106.54.203.54
1.15.220.205
168.194.160.245
81.71.140.116
221.146.81.12
149.129.244.83
81.71.64.10
104.34.11.132
45.40.199.207
200.217.57.203
165.22.14.201
101.66.172.72
206.189.171.204
189.60.248.1
182.254.133.13
35.213.179.247
82.156.59.197
134.209.77.218
81.68.238.7
185.246.130.69
47.74.34.6
8.21.11.81
62.201.207.52
111.67.206.40
124.89.83.117
182.61.10.92
188.166.151.44
1.117.185.140
91.144.20.198
121.5.17.196
61.12.38.162
95.182.122.131
164.163.23.19
54.222.182.182
42.200.109.74
134.209.150.61
190.104.146.136
91.234.34.44
51.182.150.114
118.89.78.206
179.43.156.231
81.68.88.208
49.232.139.175
165.22.255.115
43.249.231.52
165.227.106.20
101.32.101.171
106.52.70.206
172.81.238.79
200.156.140.17
123.177.19.13
157.230.183.86
101.32.14.126
121.4.85.107
104.236.248.184
61.0.251.12
118.25.103.195
178.128.109.201
27.71.71.39
62.234.97.207
103.106.82.130
148.72.22.191
157.245.13.253
160.16.117.80
51.144.137.125
223.255.187.154
42.101.5.108
152.136.131.242
134.122.17.178
111.230.105.196
106.75.179.87
1.15.9.202
112.166.133.216
195.133.216.62
150.158.153.22
116.112.207.168
190.191.28.41
159.89.112.44
47.115.190.226
104.248.226.26
179.189.229.82
81.182.254.124
139.59.129.44
106.12.173.237
106.13.140.143
107.189.11.225
206.189.129.168
118.24.146.186
68.183.12.80
119.45.29.10
152.136.217.72
118.27.35.230
118.126.113.87
186.206.145.119
195.133.40.158
213.6.203.226
171.97.32.12
61.135.136.184
209.97.159.61
119.29.200.79
129.158.74.141
129.226.35.5
129.226.138.179
119.28.226.39
36.159.127.228
201.149.20.162
128.199.78.229
36.133.45.135
186.43.33.105
144.126.197.136
138.68.178.64
177.124.201.59
178.128.243.225
138.68.110.166
119.28.77.175
81.70.173.185
219.138.227.213
139.219.13.163
205.185.114.57
198.199.64.97
204.15.72.204
188.166.58.179
139.186.84.46
121.4.102.32
49.235.237.186
103.205.7.83
81.69.231.210
81.69.38.14
157.230.182.175
27.123.219.34
81.70.32.82
94.240.254.19
115.238.97.2
129.226.174.139
138.197.221.27
174.138.40.185
206.189.31.183
106.75.110.207
81.69.7.163
211.22.236.44
37.139.5.94
40.72.97.166
107.173.167.149
206.189.145.21
1.234.58.166
104.45.17.110
60.250.94.62
94.137.136.45
184.185.77.134
156.240.95.193
198.199.76.227
82.156.12.198
46.72.166.174
104.236.109.59
200.196.249.170
2.82.234.17
134.209.108.118
98.173.9.34
103.45.104.31
101.36.127.150
81.68.245.33
118.195.134.34
101.224.163.47
115.79.203.189
111.231.93.35
103.24.179.96
81.68.97.123
42.193.52.24
64.225.53.232
77.85.216.134
103.253.147.160
103.147.4.25
177.184.75.130
114.67.87.255
118.193.33.221
200.108.143.6
179.43.176.68
167.99.153.214
85.187.158.172
1.202.76.226
118.97.119.130
121.5.124.51
23.225.39.125
189.8.68.56
162.245.50.96
106.54.210.178
118.212.146.42
181.129.167.166
89.45.233.103
190.129.60.125
80.122.135.22
185.238.29.11
134.175.203.150
178.19.144.27
119.45.48.108
79.148.110.135
1.15.152.23
185.128.139.217
103.18.245.218
51.158.111.168
119.45.167.104
190.187.100.17
136.24.27.224
118.25.235.186
104.197.97.245
218.30.91.130
20.52.52.136
42.192.231.149
104.131.79.252
68.183.121.81
106.52.182.137
41.45.120.192
107.170.109.82
197.255.225.96
106.75.67.196
111.243.43.35
103.44.248.252
13.76.6.58
159.75.74.159
2.82.170.124
178.128.221.237
8.37.43.171
111.67.205.70
165.227.142.62
64.225.106.52
106.52.145.186
81.69.37.35
36.91.119.221
175.24.36.108
49.234.86.230
20.85.211.143
42.192.8.30
122.51.149.86
139.186.150.45
159.75.11.97
211.253.93.186
67.205.174.148
139.199.35.155
192.144.232.129
113.31.119.233
52.146.0.167
174.138.24.42
86.102.104.116
177.139.211.181
107.189.30.221
107.180.106.60
68.183.120.37
116.112.207.163
211.97.91.108
101.251.210.149
82.157.10.216
140.143.183.71
167.99.248.234
31.186.48.216
209.97.130.60
139.59.90.147
209.141.40.244
115.159.90.137
213.174.106.178
143.110.188.7
185.227.243.97
49.233.23.193
1.85.217.7
128.127.210.190
51.15.86.154
112.28.209.80
134.122.69.50
120.53.223.202
106.13.148.29
46.101.5.62
120.48.18.111
203.202.248.254
81.70.210.74
189.89.221.246
35.227.35.222
79.143.27.40
66.128.34.136
82.157.27.30
49.235.38.46
163.172.169.92
165.227.32.161
101.32.10.239
129.226.164.165
81.68.179.31
133.167.123.91
128.199.52.45
182.61.30.43
103.57.123.1
180.167.67.133
180.76.121.95
68.183.12.127
1.117.106.53
89.175.29.126
220.133.95.68
201.182.72.250
36.66.48.187
146.185.159.124
119.45.231.110
5.3.6.82
128.199.226.138
37.0.11.231
122.51.208.128
1.85.219.228
128.199.251.65
170.199.134.97
140.143.229.224
121.4.29.158
159.89.129.191
114.117.199.115
195.54.41.29
61.251.191.139
114.67.219.159
45.118.145.81
129.204.228.234
187.157.153.167
222.168.30.19
49.235.103.191
119.45.222.33
148.72.212.161
103.221.80.34
42.119.111.155
114.117.194.163
121.4.70.7
116.196.122.196
81.71.38.159
122.114.189.89
121.4.89.155
111.229.4.247
159.75.120.153
107.175.83.11
62.4.29.239
43.129.189.97
8.208.86.156
125.99.159.93
198.12.86.54
115.159.112.66
106.55.251.223
190.202.54.12
111.229.187.216
139.186.132.77
124.194.123.242
167.172.181.233
51.15.247.166
82.156.97.165
111.67.198.246
103.18.69.54
95.85.43.241
129.205.124.253
210.21.226.2
49.235.159.133
129.28.183.3
161.35.108.241
152.136.184.236
190.64.135.122
49.235.92.209
42.193.159.221
50.76.88.187
13.72.64.49
157.245.91.72
92.157.169.91
165.22.3.210
104.248.41.237
106.13.144.207
187.58.27.110
159.65.152.148
58.96.221.47
159.65.217.124
79.145.67.178
187.72.4.99
119.45.92.63
167.172.98.89
159.203.85.196
205.185.126.8
45.55.197.155
185.136.85.115
198.244.141.250
201.238.215.131
1.235.192.218
149.129.251.229
212.129.40.84
42.192.3.193
201.40.240.171
222.191.234.30
220.123.241.30
64.225.25.59
211.75.141.112
167.71.22.168
81.69.245.83
1.117.190.106
112.78.134.11
206.189.127.6
117.248.109.225
42.193.144.254
40.115.79.44
191.84.244.78
97.105.212.218
182.220.251.112
165.154.235.242
212.64.3.194
159.203.88.30
81.70.173.193
119.147.20.237
49.235.74.192
51.38.125.221
112.60.40.93
115.76.174.206
64.227.126.250
173.82.58.99
121.229.9.72
190.88.24.160
117.50.129.4
122.155.223.9
103.233.1.53
132.232.18.227
121.4.228.87
134.17.94.114
103.119.92.107
46.181.60.150
42.192.47.188
123.30.186.171
179.43.187.184
27.156.14.93
103.133.57.250
115.85.53.91
36.91.218.130
103.136.40.93
106.254.246.210
106.75.65.172
119.96.125.234
106.53.121.179
207.244.245.87
157.245.168.191
156.251.131.10
106.52.70.240
193.112.172.57
3.235.148.156
23.101.124.74
148.70.98.147
106.75.209.179
119.28.151.212
165.22.245.10
165.227.85.62
162.216.113.204
190.147.33.171
81.68.254.166
49.234.234.164
209.141.48.159
159.75.80.191
1.117.12.53
2.184.4.3
122.166.192.97
139.155.183.40
111.229.147.12
103.101.3.133
165.22.179.40
69.176.91.89
78.130.225.212
185.141.134.109
178.62.37.78
121.4.52.222
217.117.14.248
150.158.182.229
42.192.221.34
23.94.216.121
1.55.164.222
106.51.79.96
106.241.33.158
41.249.250.209
103.40.245.37
206.189.130.255
23.240.144.160
203.159.249.215
118.24.116.21
1.117.139.60
1.116.252.103
42.248.121.57
59.124.0.222
113.90.237.35
14.143.3.30
129.226.170.141
143.198.203.154
112.206.22.245
182.148.113.6
122.4.41.253
154.92.17.49
37.82.254.243
200.111.120.180
40.73.119.184
134.175.137.69
202.28.221.106
51.15.7.16
159.203.168.167
35.238.246.142
82.156.215.247
178.18.250.143
27.147.155.225
36.153.231.18
81.70.251.152
120.204.196.137
93.108.233.162
148.70.107.49
1.15.156.81
121.5.191.206
49.233.30.164
175.27.189.179
1.15.104.123
159.75.2.130
119.6.253.53
187.123.191.187
165.232.142.77
152.136.229.91
115.159.110.192
140.211.167.25
198.199.94.189
139.199.18.200
1.15.48.154
129.211.44.129
212.64.65.159
175.198.80.24
187.106.203.217
178.128.73.254
3.109.90.25
113.181.123.151
111.90.187.94
122.180.87.199
62.94.153.133
91.185.40.251
119.45.158.22
103.86.160.93
106.52.117.111
202.169.46.155
193.228.108.122
45.124.144.116
205.185.126.160
60.214.102.26
110.137.82.164
222.64.90.221
193.108.249.107
180.110.48.25
111.229.26.25
167.114.73.152
189.14.54.75
104.211.164.87
88.200.224.211
177.125.26.110
221.213.129.46
119.91.119.191
121.66.109.93
159.89.230.196
188.166.5.84
109.203.192.125
139.198.122.19
1.15.221.18
1.15.246.172
167.99.68.65
42.192.141.160
43.252.230.128
112.218.121.117
106.13.228.207
165.154.235.246
165.232.154.4
106.52.174.219
81.68.179.38
129.211.54.147
37.128.98.132
199.195.248.123
222.255.115.237
173.201.188.226
94.131.219.3
49.232.160.254
1.85.217.125
118.25.182.250
186.208.114.100
128.199.66.19
180.76.143.216
184.2.219.133
212.129.5.154
202.201.13.134
125.227.157.248
80.87.39.94
187.95.124.103
194.152.220.157
207.154.239.128
182.75.216.74
213.248.75.89
50.115.168.140
170.210.121.208
178.62.214.85
159.75.14.88
161.35.52.86
110.159.246.152
148.223.66.57
103.50.205.112
49.247.213.18
177.68.74.114
104.236.52.94
1.204.65.156
13.67.67.168
188.226.192.115
134.209.109.149
188.166.240.83
179.191.69.146
77.230.116.216
195.29.51.137
189.154.80.131
133.18.170.118
82.156.208.242
211.23.160.180
87.237.213.35
129.211.60.53
51.15.204.199
202.62.10.250
77.247.181.163
144.126.220.252
66.45.232.18
82.156.19.77
125.209.84.253
203.121.116.9
82.64.117.122
79.120.54.174
163.172.47.98
175.24.64.17
119.97.252.154
114.118.12.230
179.43.141.99
121.4.179.91
68.183.70.124
62.118.159.180
101.230.136.34
121.4.123.107
119.45.253.128
162.62.34.189
207.244.240.135
82.156.36.132
188.235.137.135
102.36.164.30
118.89.179.155
138.197.214.57
45.173.72.9
193.168.195.125
111.229.176.210
43.129.168.8
188.166.180.17
103.88.122.22
116.202.100.133
211.202.26.43
124.121.176.125
106.13.128.93
68.183.218.177
180.76.238.133
49.235.154.212
60.50.99.134
154.83.14.152
139.155.69.204
34.68.38.190
138.121.245.93
125.64.103.89
125.161.27.93
159.89.91.67
109.195.46.207
206.189.65.29
218.25.140.72
206.189.87.108
177.39.157.90
14.63.213.72
42.192.97.77
187.73.241.162
195.138.86.217
49.235.129.160
82.65.109.73
178.128.52.226
182.61.132.240
42.192.127.194
211.23.87.106
94.5.83.168
190.156.231.245
189.15.24.151
170.106.142.211
139.155.35.47
101.33.78.239
192.144.217.132
104.131.39.193
121.5.59.56
177.140.241.190
34.94.182.248
104.131.161.6
118.24.237.118
82.156.103.16
203.95.212.41
106.55.58.118
197.5.145.117
118.27.9.23
165.154.235.180
121.5.165.250
139.59.176.197
81.71.83.218
159.75.205.55
206.189.125.211
195.224.39.199
37.111.131.38
101.36.112.134
165.154.233.192
49.232.105.118
82.156.101.171
186.145.254.158
203.110.211.91
83.151.14.181
79.172.108.82
171.48.10.203
167.99.70.3
202.148.28.83
84.22.42.12
42.192.235.19
106.13.74.61
134.122.8.241
42.193.0.6
182.254.243.11
68.183.229.218
182.253.28.123
167.71.237.162
122.154.155.114
165.22.234.248
45.55.167.87
36.72.168.96
204.48.20.154
36.133.94.209
159.89.110.200
185.14.187.133
20.194.50.237
187.170.227.221
167.99.109.254
117.215.163.37
104.131.13.185
104.244.72.8
119.45.183.194
189.240.62.227
46.101.115.211
102.53.4.42
117.121.212.226
111.67.196.70
165.22.243.54
200.126.194.9
121.4.131.79
89.40.53.35
157.230.82.138
115.78.10.115
209.141.54.197
42.194.143.113
42.192.44.134
106.75.246.203
1.15.117.189
118.126.65.74
159.75.140.249
183.104.206.223
139.59.118.3
125.178.227.57
195.78.49.59
51.15.11.122
106.13.198.68
207.244.252.59
170.106.169.195
119.28.46.187
114.143.73.155
82.156.71.217
101.78.9.237
167.172.142.20
205.185.125.24
146.56.246.152
162.243.136.58
49.234.8.214
181.94.226.164
193.106.98.26
45.183.192.14
203.195.157.137
42.194.222.72
121.4.225.59
59.91.133.36
111.161.74.118
103.253.200.161
138.197.213.192
159.65.245.182
110.10.178.178
139.59.121.221
67.205.187.133
113.31.107.34
118.89.142.247
162.209.206.24
81.68.244.19
119.45.215.155
187.189.51.115
49.233.173.136
152.136.122.172
47.74.23.180
139.155.75.170
122.154.56.18
148.216.29.124
143.198.160.124
31.45.217.214
193.112.39.179
81.69.193.35
140.143.244.97
209.97.163.142
121.5.190.100
117.50.3.139
1.117.106.139
81.183.208.244
198.98.58.117
93.71.200.175
119.118.208.234
160.251.14.34
36.133.136.150
59.40.79.227
185.117.119.170
45.61.185.254
161.35.129.216
104.131.68.23
180.76.181.193
218.111.88.185
42.193.179.232
141.94.69.31
172.81.205.216
103.167.124.254
81.71.87.156
165.22.70.203
49.232.155.44
159.89.51.183
5.67.143.37
206.189.25.102
159.89.227.177
1.116.248.190
170.106.155.191
106.75.190.28
77.227.158.129
118.195.141.139
139.155.20.28
180.76.234.185
103.136.42.145
179.131.10.103
190.117.113.32
198.46.190.32
118.26.37.27
106.75.253.248
106.52.128.185
8.21.11.191
60.111.29.14
157.245.227.165
81.69.29.78
123.129.65.235
103.72.144.228
165.232.181.101
101.32.222.206
161.35.182.127
62.210.130.143
106.51.80.198
167.99.169.17
104.225.236.41
49.232.71.199
157.245.124.160
101.36.118.82
209.97.143.9
152.136.144.141
107.189.31.227
107.189.1.180
150.158.191.30
35.216.73.53
116.98.163.32
168.121.104.115
207.154.242.147
103.147.6.89
47.254.172.160
206.189.233.23
58.87.102.180
152.32.186.240
106.58.175.97
182.254.156.220
42.192.190.203
178.236.210.50
136.144.41.150
106.58.178.14
182.61.150.209
183.134.162.239
150.109.181.251
190.94.253.22
105.179.7.162
181.48.134.66
102.164.61.126
209.141.51.221
49.233.5.253
150.95.151.4
113.193.243.165
221.150.92.10
103.27.79.11
89.97.173.159
154.83.15.21
109.90.15.53
111.67.206.191
134.122.44.93
115.166.143.10
58.229.114.170
42.194.177.22
161.35.178.99
180.76.238.70
109.237.110.198
178.62.22.142
43.128.3.101
106.75.103.109
45.64.112.104
159.75.23.229
114.242.245.29
180.148.214.178
42.192.54.145
1.15.150.10
129.204.32.53
64.227.28.246
37.34.77.101
125.160.66.253
106.13.87.145
165.22.10.136
207.46.131.192
167.71.58.244
177.191.163.53
186.137.197.124
81.70.142.15
1.117.33.197
113.65.66.31
134.209.114.69
139.59.18.191
190.144.114.162
80.253.246.89
222.73.62.184
106.12.119.242
172.81.239.104
190.128.230.206
1.15.77.31
157.230.36.222
1.15.234.171
121.4.93.229
51.178.31.182
181.223.66.128
14.49.36.247
41.35.42.22
106.54.222.51
188.166.251.87
209.141.34.119
42.192.38.253
170.106.82.81
190.186.170.83
122.51.26.230
121.4.66.212
78.22.105.231
117.50.119.208
15.206.72.235
75.140.192.72
51.15.229.198
58.87.72.130
136.233.23.235
177.47.93.144
111.231.3.24
121.5.213.241
182.61.60.147
103.103.128.61
203.25.208.154
27.19.223.164
14.52.249.27
106.13.23.86
42.192.79.7
62.210.214.52
45.55.184.78
119.147.184.22
42.240.131.61
23.97.166.85
111.201.134.200
27.112.78.34
189.113.131.44
205.185.127.25
106.245.95.116
194.186.153.202
118.24.102.189
49.232.218.129
179.104.229.202
103.82.100.226
49.234.218.171
206.81.21.36
132.232.31.9
45.55.20.115
36.66.40.13
45.88.109.63
114.4.227.194
149.129.232.209
49.234.21.219
116.255.152.39
143.198.163.146
182.53.105.198
162.248.52.3
210.3.92.14
47.74.40.54
157.230.19.72
42.192.20.162
87.117.25.126
81.30.176.30
161.35.121.130
106.53.156.113
183.87.107.166
51.15.49.214
40.70.0.187
31.186.59.25
51.79.52.222
191.188.70.175
118.123.96.18
103.39.212.96
81.4.127.228
157.230.13.180
83.79.243.111
58.33.160.139
175.24.152.115
178.128.144.227
122.51.248.76
161.35.86.195
172.124.38.41
171.217.52.65
190.85.54.158
122.187.36.130
54.180.9.237
171.244.48.33
118.25.23.208
81.68.176.149
96.79.124.153
129.211.16.182
103.152.114.187
104.254.223.221
180.76.111.176
171.244.139.236
81.69.234.216
81.68.217.130
93.153.192.254
103.93.16.164
167.99.88.37
183.62.69.211
82.209.118.57
211.159.183.117
128.199.207.45
177.128.197.234
170.210.203.201
213.156.55.155
178.128.93.251
3.6.23.86
1.116.177.118
172.58.22.146
118.193.35.182
159.65.11.115
104.236.21.175
159.75.134.220
122.11.148.38
124.43.177.160
111.229.243.152
222.108.172.135
146.56.201.178
139.198.12.17
37.151.196.175
114.6.29.30
106.75.96.235
205.185.113.39
190.111.211.52
192.144.230.43
217.107.197.240
122.51.54.53
116.24.65.95
27.19.255.235
189.178.26.72
104.211.206.64
114.96.105.193
159.65.235.114
167.71.224.129
129.146.114.169
121.5.144.142
47.91.22.52
202.21.123.196
65.51.44.118
103.111.219.126
43.129.29.198
106.13.218.224
74.129.23.72
152.136.112.24
119.45.236.239
106.52.92.199
66.68.187.140
116.110.144.183
164.132.144.229
182.73.29.37
81.28.167.30
121.4.189.34
188.193.191.52
41.230.14.107
68.183.97.244
121.120.80.170
125.18.20.150
111.229.251.100
165.227.57.213
88.132.66.26
195.191.82.212
95.169.5.166
91.215.60.232
157.230.120.21
121.4.66.186
90.216.199.18
152.32.212.72
199.195.251.119
203.151.81.77
125.163.160.229
116.110.72.220
201.16.243.140
196.15.211.92
190.56.224.166
87.255.193.50
124.43.9.184
119.254.155.22
213.79.50.124
49.232.67.184
178.62.158.205
157.245.252.34
106.13.86.65
1.116.243.210
14.99.187.2
223.25.97.250
101.36.127.61
137.116.224.184
159.75.130.57
82.156.87.90
194.145.208.226
213.190.28.170
46.44.201.212
188.247.90.252
128.199.90.55
140.249.205.107
154.127.82.93
118.25.144.49
103.149.201.90
165.154.248.126
1.15.38.28
190.140.110.10
150.158.175.66
181.40.122.2
81.69.35.24
74.59.231.230
120.53.9.188
96.1.101.84
106.13.40.205
106.13.123.239
106.75.81.212
103.114.153.207
199.19.226.12
1.15.177.43
93.219.244.91
139.155.179.136
210.105.82.53
179.83.133.242
209.141.32.203
88.204.164.234
119.84.128.24
1.202.77.210
212.83.130.209
185.201.115.164
51.178.43.216
213.141.54.7
159.89.202.95
165.22.25.35
198.211.104.212
121.176.185.192
193.213.28.210
1.116.239.69
138.68.155.69
217.20.178.242
178.128.21.38
190.145.137.132
200.142.124.30
27.128.173.81
128.199.121.190
149.129.135.120
186.122.150.31
180.76.37.3
106.75.110.204
160.251.46.165
49.247.213.58
188.166.109.87
150.109.58.69
129.226.160.128
128.199.239.134
186.213.246.39
178.128.184.213
65.49.198.145
42.200.71.74
119.28.235.221
154.8.197.29
47.74.41.12
103.158.212.221
200.126.241.145
36.67.197.52
61.111.130.2
210.220.72.78
165.232.65.66
119.45.199.177
103.50.205.159
51.15.225.36
103.152.79.161
110.169.145.24
112.35.170.40
171.97.203.237
5.195.226.39
81.68.99.229
167.99.236.74
82.196.15.195
107.189.3.151
75.108.21.14
111.67.193.227
108.28.95.211
111.21.99.227
36.76.214.26
49.248.77.234
128.199.99.204
153.254.110.120
121.40.198.129
128.199.4.167
35.219.23.137
173.82.239.141
46.254.26.48
118.89.119.66
213.178.252.30
203.201.173.114
200.146.247.220
52.131.233.238
188.166.188.120
104.248.61.192
106.12.93.42
206.189.200.15
139.217.236.135
114.67.116.23
81.71.96.41
195.228.80.166
146.56.216.83
49.235.98.79
42.193.178.57
42.192.78.126
121.4.15.143
194.163.152.211
143.198.231.179
165.22.242.130
221.122.82.91
1.15.91.252
121.4.213.242
58.221.62.191
211.24.73.223
81.68.128.31
112.78.188.194
190.1.203.180
191.98.177.178
103.226.138.149
101.36.124.30
115.159.58.206
113.140.80.174
175.27.236.167
36.134.125.206
183.195.233.58
207.180.221.35
3.109.2.64
104.248.2.89
130.61.227.100
202.139.198.168
118.99.108.110
49.234.106.222
115.239.226.186
179.100.25.5
115.84.96.128
190.5.228.74
81.68.172.21
62.201.96.142
59.56.99.130
68.192.74.5
114.242.245.32
51.15.204.155
123.207.122.21
81.68.255.119
201.16.215.38
188.166.240.30
223.240.108.220
202.98.203.26
1.117.7.214
101.68.78.194
117.50.64.141
42.192.224.149
128.199.128.170
62.92.48.242
185.220.103.8
123.206.111.27
104.244.78.182
43.131.66.130
68.183.88.186
71.213.97.48
65.188.54.4
139.59.89.195
190.104.254.198
171.39.0.3
222.252.20.185
35.198.213.250
8.209.73.223
43.129.66.218
49.232.147.189
49.235.93.34
211.253.30.40
39.155.222.61
20.68.244.13
1.119.144.186
68.183.108.46
103.233.0.121
68.183.31.114
152.231.140.150
68.183.84.3
180.76.227.138
182.61.52.98
103.253.2.185
180.247.85.216
106.13.52.192
125.99.46.49
162.243.22.191
185.74.4.20
119.28.68.78
185.210.144.65
58.22.7.74
159.65.180.64
106.75.31.135
20.70.136.50
89.163.209.26
106.12.158.42
159.65.98.176
168.232.152.242
51.15.178.72
106.12.208.169
121.4.38.221
140.249.193.16
103.205.143.219
165.227.124.168
91.187.215.94
167.99.96.114
81.192.87.130
77.158.71.118
45.43.61.229
117.247.187.136
185.68.208.154
180.76.107.222
152.32.227.173
101.36.110.151
88.218.227.144
185.251.249.84
52.237.83.226
45.55.237.182
49.232.69.222
178.203.148.110
167.172.195.99
175.113.50.47
159.89.104.15
58.241.46.14
136.233.23.244
139.59.61.103
45.163.144.2
104.37.189.85
175.24.185.179
195.78.49.68
192.248.19.140
210.212.172.182
154.198.2.4
119.29.85.229
128.199.12.141
191.243.59.236
121.4.200.225
211.253.8.225
115.159.33.157
159.89.229.96
149.129.218.37
209.141.56.240
89.189.129.237
94.179.133.22
36.134.23.107
49.232.135.84
121.4.207.93
81.68.120.99
165.227.25.154
49.236.204.37
58.33.35.82
202.122.8.50
119.45.223.241
165.232.105.80
1.116.162.236
173.254.231.114
1.15.138.221
201.182.180.33
205.185.121.210
1.15.156.92
62.210.125.18
162.243.233.102
36.133.192.232
161.35.99.173
68.183.53.170
128.199.138.14
114.67.110.206
119.45.252.21
161.35.218.167
138.197.203.168
121.5.197.248
180.76.162.86
206.253.161.75
121.5.145.235
49.234.75.11
165.154.235.232
195.29.102.42
162.0.216.215
36.133.94.232
195.29.51.135
134.175.161.251
47.74.6.176
208.109.11.34
157.245.163.0
170.84.184.22
81.68.214.147
128.199.45.37
182.61.149.138
188.72.137.12
91.90.36.174
134.175.24.254
213.230.107.202
13.112.17.14
121.5.27.216
149.129.222.49
41.221.168.167
111.230.221.203
212.47.245.67
49.232.25.161
106.52.108.71
182.254.228.124
134.209.67.135
121.5.240.70
150.109.113.254
117.254.82.196
106.12.173.204
1.117.75.143
59.124.0.218
143.110.146.186
81.70.167.241
81.69.220.13
124.121.93.109
39.104.82.181
35.228.169.211
103.212.143.189
23.94.107.147
49.234.42.234
107.150.11.40
42.193.186.214
36.133.186.2
139.155.28.176
200.58.83.143
134.122.53.64
60.212.55.132
185.74.4.189
139.198.121.86
106.55.240.179
106.250.187.82
81.68.114.6
188.254.0.170
106.13.1.98
103.48.140.39
15.206.235.81
49.233.69.138
106.12.161.107
218.153.89.102
1.116.181.179
49.233.77.12
160.251.47.176
121.5.44.151
182.151.16.46
149.56.97.63
202.85.46.169
81.68.243.3
119.45.231.169
103.140.207.226
185.180.241.40
132.232.96.126
14.23.44.10
138.197.66.68
206.189.153.222
3.108.237.67
195.154.114.116
129.204.131.218
103.123.25.80
24.172.172.2
45.235.196.250
49.233.180.38
159.75.130.56
42.192.209.75
104.244.76.25
42.192.132.2
153.127.23.163
106.55.23.240
1.116.135.59
18.224.69.205
62.99.90.10
37.252.190.224
187.207.157.91
101.36.178.48
178.128.28.51
195.24.129.234
106.52.71.211
182.254.137.75
119.29.181.192
47.74.2.142
122.180.247.61
111.19.199.72
111.230.231.196
84.10.31.202
128.201.138.21
212.22.79.236
187.111.164.126
52.247.25.197
163.172.36.126
92.62.131.124
42.200.78.78
42.193.183.121
112.91.81.99
193.111.234.123
121.5.125.168
51.15.195.193
152.136.157.234
106.51.78.188
198.98.56.228
81.70.45.77
42.193.181.178
170.80.68.242
165.22.217.96
190.52.34.43
42.192.170.39
81.68.93.27
211.159.153.62
106.13.195.32
113.105.131.194
139.59.93.234
174.138.182.102
165.232.124.209
1.117.220.173
153.101.29.178
8.45.42.140
138.68.167.109
27.128.244.13
1.119.131.102
52.82.36.173
167.172.177.192
112.137.140.40
111.67.206.125
42.192.94.15
141.98.10.203
222.128.104.102
192.162.62.149
202.52.248.120
165.227.23.158
45.155.204.39
91.192.136.43
42.193.99.56
178.62.117.106
189.140.112.188
41.182.186.127
61.135.152.226
23.224.186.162
104.236.151.120
103.49.228.234
190.52.191.49
49.235.232.69
123.58.217.155
51.140.94.156
139.198.122.116
106.55.14.108
202.85.222.190
192.109.240.141
122.14.222.202
42.240.132.243
128.199.30.160
185.59.139.99
118.24.140.195
198.211.123.150
188.225.254.108
49.232.223.106
122.51.208.215
142.93.59.117
195.136.205.8
42.192.46.195
167.71.202.247
218.75.210.46
81.71.72.142
37.59.236.157
51.36.64.61
